newmtl material
Ka 0.300000 0.300000 0.300000
Kd 0.700000 0.700000 0.700000
Ks 1.000000 1.000000 1.000000
Ns 20.000000
Tr 0.000000
illum 2
map_Kd C:\Unity Tutorials by Dan\SpaceInvaders_Game\Pictures\enemy_ship_A.tga
newmtl cylinder_XSIPOLYCLS.material1
Ka 0.300000 0.300000 0.300000
Kd 0.700000 0.700000 0.700000
Ks 1.000000 1.000000 1.000000
Ns 20.000000
Tr 0.000000
illum 2
map_Kd C:\Unity Tutorials by Dan\SpaceInvaders_Game\Pictures\enemy_ship_A.tga
