# XSI Wavefront OBJ Export v3.0
# File Created: Wed Feb 17 15:19:47 2010
# XSI Version: 6.02.2007.0613
mtllib LongLaser_B.mtl

o cylinder
# Hierarchy (from self to top father)
g cylinder

#begin 62 vertices
v 0.000000 10.122279 -0.000000
v 0.000000 -10.122279 0.000000
v -0.095995 10.122279 -0.000000
v -0.443820 6.073368 -0.000000
v -0.443820 2.024456 -0.000000
v -0.443820 -2.024456 0.000000
v -0.443820 -6.073368 0.000000
v -0.077295 -10.122279 0.000000
v -0.077661 10.122279 -0.056424
v -0.359058 6.073368 -0.260871
v -0.359058 2.024456 -0.260871
v -0.359058 -2.024456 -0.260871
v -0.359058 -6.073368 -0.260871
v -0.062533 -10.122279 -0.045433
v -0.029664 10.122279 -0.091297
v -0.137148 6.073368 -0.422098
v -0.137148 2.024456 -0.422098
v -0.137148 -2.024456 -0.422098
v -0.137148 -6.073368 -0.422098
v -0.023885 -10.122279 -0.073511
v 0.029664 10.122279 -0.091297
v 0.137148 6.073368 -0.422098
v 0.137148 2.024456 -0.422098
v 0.137148 -2.024456 -0.422098
v 0.137148 -6.073368 -0.422098
v 0.023885 -10.122279 -0.073511
v 0.077661 10.122279 -0.056424
v 0.359058 6.073368 -0.260871
v 0.359058 2.024456 -0.260871
v 0.359058 -2.024456 -0.260871
v 0.359058 -6.073368 -0.260871
v 0.062533 -10.122279 -0.045433
v 0.095995 10.122279 -0.000000
v 0.443820 6.073368 -0.000000
v 0.443820 2.024456 -0.000000
v 0.443820 -2.024456 0.000000
v 0.443820 -6.073368 0.000000
v 0.077295 -10.122279 0.000000
v 0.077661 10.122279 0.056424
v 0.359058 6.073368 0.260871
v 0.359058 2.024456 0.260871
v 0.359058 -2.024456 0.260871
v 0.359058 -6.073368 0.260871
v 0.062533 -10.122279 0.045433
v 0.029664 10.122279 0.091297
v 0.137148 6.073368 0.422098
v 0.137148 2.024456 0.422098
v 0.137148 -2.024456 0.422098
v 0.137148 -6.073368 0.422098
v 0.023885 -10.122279 0.073511
v -0.029664 10.122279 0.091297
v -0.137148 6.073368 0.422098
v -0.137148 2.024456 0.422098
v -0.137148 -2.024456 0.422098
v -0.137148 -6.073368 0.422098
v -0.023885 -10.122279 0.073511
v -0.077661 10.122279 0.056424
v -0.359058 6.073368 0.260871
v -0.359058 2.024456 0.260871
v -0.359058 -2.024456 0.260871
v -0.359058 -6.073368 0.260871
v -0.062533 -10.122279 0.045433
#end 62 vertices

#begin 260 normals
vn 0.000000 1.000000 0.000000
vn 0.000000 1.000000 0.000000
vn 0.000000 1.000000 0.000000
vn -0.996330 0.085591 0.000000
vn -0.806048 0.085591 -0.585628
vn -0.808274 0.042842 -0.587246
vn -0.999082 0.042842 0.000000
vn -0.999082 0.042842 0.000000
vn -0.808274 0.042842 -0.587246
vn -0.809017 -0.000000 -0.587785
vn -1.000000 0.000000 0.000000
vn -1.000000 0.000000 0.000000
vn -0.809017 -0.000000 -0.587785
vn -0.809017 -0.000000 -0.587785
vn -1.000000 -0.000000 0.000000
vn -1.000000 -0.000000 0.000000
vn -0.809017 -0.000000 -0.587785
vn -0.808193 -0.045133 -0.587186
vn -0.998981 -0.045133 0.000000
vn -0.998981 -0.045133 0.000000
vn -0.808193 -0.045133 -0.587186
vn -0.805722 -0.090156 -0.585392
vn -0.995928 -0.090156 0.000000
vn 0.000000 -1.000000 0.000000
vn 0.000000 -1.000000 0.000000
vn 0.000000 -1.000000 0.000000
vn 0.000000 1.000000 0.000000
vn 0.000000 1.000000 0.000000
vn 0.000000 1.000000 0.000000
vn -0.806048 0.085591 -0.585628
vn -0.307883 0.085591 -0.947567
vn -0.308733 0.042842 -0.950183
vn -0.808274 0.042842 -0.587246
vn -0.808274 0.042842 -0.587246
vn -0.308733 0.042842 -0.950183
vn -0.309017 -0.000000 -0.951057
vn -0.809017 -0.000000 -0.587785
vn -0.809017 -0.000000 -0.587785
vn -0.309017 -0.000000 -0.951057
vn -0.309017 -0.000000 -0.951057
vn -0.809017 -0.000000 -0.587785
vn -0.809017 -0.000000 -0.587785
vn -0.309017 -0.000000 -0.951057
vn -0.308702 -0.045133 -0.950087
vn -0.808193 -0.045133 -0.587186
vn -0.808193 -0.045133 -0.587186
vn -0.308702 -0.045133 -0.950087
vn -0.307759 -0.090156 -0.947183
vn -0.805722 -0.090156 -0.585392
vn 0.000000 -1.000000 0.000000
vn 0.000000 -1.000000 0.000000
vn 0.000000 -1.000000 0.000000
vn 0.000000 1.000000 0.000000
vn 0.000000 1.000000 0.000000
vn 0.000000 1.000000 0.000000
vn -0.307883 0.085591 -0.947567
vn 0.307883 0.085591 -0.947567
vn 0.308733 0.042842 -0.950183
vn -0.308733 0.042842 -0.950183
vn -0.308733 0.042842 -0.950183
vn 0.308733 0.042842 -0.950183
vn 0.309017 -0.000000 -0.951057
vn -0.309017 -0.000000 -0.951057
vn -0.309017 -0.000000 -0.951057
vn 0.309017 -0.000000 -0.951057
vn 0.309017 -0.000000 -0.951057
vn -0.309017 -0.000000 -0.951057
vn -0.309017 -0.000000 -0.951057
vn 0.309017 -0.000000 -0.951057
vn 0.308702 -0.045133 -0.950087
vn -0.308702 -0.045133 -0.950087
vn -0.308702 -0.045133 -0.950087
vn 0.308702 -0.045133 -0.950087
vn 0.307759 -0.090156 -0.947183
vn -0.307759 -0.090156 -0.947183
vn 0.000000 -1.000000 0.000000
vn 0.000000 -1.000000 0.000000
vn 0.000000 -1.000000 0.000000
vn 0.000000 1.000000 0.000000
vn 0.000000 1.000000 0.000000
vn 0.000000 1.000000 0.000000
vn 0.307883 0.085591 -0.947567
vn 0.806048 0.085591 -0.585628
vn 0.808274 0.042842 -0.587246
vn 0.308733 0.042842 -0.950183
vn 0.308733 0.042842 -0.950183
vn 0.808274 0.042842 -0.587246
vn 0.809017 -0.000000 -0.587785
vn 0.309017 -0.000000 -0.951057
vn 0.309017 -0.000000 -0.951057
vn 0.809017 -0.000000 -0.587785
vn 0.809017 -0.000000 -0.587785
vn 0.309017 -0.000000 -0.951057
vn 0.309017 -0.000000 -0.951057
vn 0.809017 -0.000000 -0.587785
vn 0.808193 -0.045133 -0.587186
vn 0.308702 -0.045133 -0.950087
vn 0.308702 -0.045133 -0.950087
vn 0.808193 -0.045133 -0.587186
vn 0.805722 -0.090156 -0.585392
vn 0.307759 -0.090156 -0.947183
vn 0.000000 -1.000000 0.000000
vn 0.000000 -1.000000 0.000000
vn 0.000000 -1.000000 0.000000
vn 0.000000 1.000000 0.000000
vn 0.000000 1.000000 0.000000
vn 0.000000 1.000000 0.000000
vn 0.806048 0.085591 -0.585628
vn 0.996330 0.085591 0.000000
vn 0.999082 0.042842 0.000000
vn 0.808274 0.042842 -0.587246
vn 0.808274 0.042842 -0.587246
vn 0.999082 0.042842 0.000000
vn 1.000000 -0.000000 0.000000
vn 0.809017 -0.000000 -0.587785
vn 0.809017 -0.000000 -0.587785
vn 1.000000 -0.000000 0.000000
vn 1.000000 0.000000 0.000000
vn 0.809017 -0.000000 -0.587785
vn 0.809017 -0.000000 -0.587785
vn 1.000000 0.000000 0.000000
vn 0.998981 -0.045133 0.000000
vn 0.808193 -0.045133 -0.587186
vn 0.808193 -0.045133 -0.587186
vn 0.998981 -0.045133 0.000000
vn 0.995928 -0.090156 0.000000
vn 0.805722 -0.090156 -0.585392
vn 0.000000 -1.000000 0.000000
vn 0.000000 -1.000000 0.000000
vn 0.000000 -1.000000 0.000000
vn 0.000000 1.000000 0.000000
vn 0.000000 1.000000 0.000000
vn 0.000000 1.000000 0.000000
vn 0.996330 0.085591 0.000000
vn 0.806048 0.085591 0.585628
vn 0.808274 0.042842 0.587246
vn 0.999082 0.042842 0.000000
vn 0.999082 0.042842 0.000000
vn 0.808274 0.042842 0.587246
vn 0.809017 0.000000 0.587785
vn 1.000000 -0.000000 0.000000
vn 1.000000 -0.000000 0.000000
vn 0.809017 0.000000 0.587785
vn 0.809017 0.000000 0.587785
vn 1.000000 0.000000 0.000000
vn 1.000000 0.000000 0.000000
vn 0.809017 0.000000 0.587785
vn 0.808193 -0.045133 0.587186
vn 0.998981 -0.045133 0.000000
vn 0.998981 -0.045133 0.000000
vn 0.808193 -0.045133 0.587186
vn 0.805722 -0.090156 0.585392
vn 0.995928 -0.090156 0.000000
vn 0.000000 -1.000000 0.000000
vn 0.000000 -1.000000 0.000000
vn 0.000000 -1.000000 0.000000
vn 0.000000 1.000000 0.000000
vn 0.000000 1.000000 0.000000
vn 0.000000 1.000000 0.000000
vn 0.806048 0.085591 0.585628
vn 0.307883 0.085591 0.947567
vn 0.308733 0.042842 0.950183
vn 0.808274 0.042842 0.587246
vn 0.808274 0.042842 0.587246
vn 0.308733 0.042842 0.950183
vn 0.309017 0.000000 0.951057
vn 0.809017 0.000000 0.587785
vn 0.809017 0.000000 0.587785
vn 0.309017 0.000000 0.951057
vn 0.309017 0.000000 0.951057
vn 0.809017 0.000000 0.587785
vn 0.809017 0.000000 0.587785
vn 0.309017 0.000000 0.951057
vn 0.308702 -0.045133 0.950087
vn 0.808193 -0.045133 0.587186
vn 0.808193 -0.045133 0.587186
vn 0.308702 -0.045133 0.950087
vn 0.307759 -0.090156 0.947183
vn 0.805722 -0.090156 0.585392
vn 0.000000 -1.000000 0.000000
vn 0.000000 -1.000000 0.000000
vn 0.000000 -1.000000 0.000000
vn 0.000000 1.000000 0.000000
vn 0.000000 1.000000 0.000000
vn 0.000000 1.000000 0.000000
vn 0.307883 0.085591 0.947567
vn -0.307883 0.085591 0.947567
vn -0.308733 0.042842 0.950183
vn 0.308733 0.042842 0.950183
vn 0.308733 0.042842 0.950183
vn -0.308733 0.042842 0.950183
vn -0.309017 0.000000 0.951057
vn 0.309017 0.000000 0.951057
vn 0.309017 0.000000 0.951057
vn -0.309017 0.000000 0.951057
vn -0.309017 0.000000 0.951057
vn 0.309017 0.000000 0.951057
vn 0.309017 0.000000 0.951057
vn -0.309017 0.000000 0.951057
vn -0.308702 -0.045133 0.950087
vn 0.308702 -0.045133 0.950087
vn 0.308702 -0.045133 0.950087
vn -0.308702 -0.045133 0.950087
vn -0.307759 -0.090156 0.947183
vn 0.307759 -0.090156 0.947183
vn 0.000000 -1.000000 0.000000
vn 0.000000 -1.000000 0.000000
vn 0.000000 -1.000000 0.000000
vn 0.000000 1.000000 0.000000
vn 0.000000 1.000000 0.000000
vn 0.000000 1.000000 0.000000
vn -0.307883 0.085591 0.947567
vn -0.806048 0.085591 0.585628
vn -0.808274 0.042842 0.587246
vn -0.308733 0.042842 0.950183
vn -0.308733 0.042842 0.950183
vn -0.808274 0.042842 0.587246
vn -0.809017 0.000000 0.587785
vn -0.309017 0.000000 0.951057
vn -0.309017 0.000000 0.951057
vn -0.809017 0.000000 0.587785
vn -0.809017 0.000000 0.587785
vn -0.309017 0.000000 0.951057
vn -0.309017 0.000000 0.951057
vn -0.809017 0.000000 0.587785
vn -0.808193 -0.045133 0.587186
vn -0.308702 -0.045133 0.950087
vn -0.308702 -0.045133 0.950087
vn -0.808193 -0.045133 0.587186
vn -0.805722 -0.090156 0.585392
vn -0.307759 -0.090156 0.947183
vn 0.000000 -1.000000 0.000000
vn 0.000000 -1.000000 0.000000
vn 0.000000 -1.000000 0.000000
vn 0.000000 1.000000 0.000000
vn 0.000000 1.000000 0.000000
vn 0.000000 1.000000 0.000000
vn -0.806048 0.085591 0.585628
vn -0.996330 0.085591 0.000000
vn -0.999082 0.042842 0.000000
vn -0.808274 0.042842 0.587246
vn -0.808274 0.042842 0.587246
vn -0.999082 0.042842 0.000000
vn -1.000000 0.000000 0.000000
vn -0.809017 0.000000 0.587785
vn -0.809017 0.000000 0.587785
vn -1.000000 0.000000 0.000000
vn -1.000000 -0.000000 0.000000
vn -0.809017 0.000000 0.587785
vn -0.809017 0.000000 0.587785
vn -1.000000 -0.000000 0.000000
vn -0.998981 -0.045133 0.000000
vn -0.808193 -0.045133 0.587186
vn -0.808193 -0.045133 0.587186
vn -0.998981 -0.045133 0.000000
vn -0.995928 -0.090156 0.000000
vn -0.805722 -0.090156 0.585392
vn 0.000000 -1.000000 0.000000
vn 0.000000 -1.000000 0.000000
vn 0.000000 -1.000000 0.000000
#end 260 vertex normals

#begin 260 texture vertices
vt 0.858584 0.669522 0.000000
vt 0.839760 0.663405 0.000000
vt 0.858584 0.637495 0.000000
vt 0.655066 0.648972 0.000000
vt 0.664544 0.632037 0.000000
vt 0.818903 0.683766 0.000000
vt 0.775086 0.762063 0.000000
vt 0.669065 0.359478 0.000000
vt 0.582031 0.359267 0.000000
vt 0.582031 0.240813 0.000000
vt 0.669065 0.241024 0.000000
vt 0.669065 0.241024 0.000000
vt 0.582031 0.240813 0.000000
vt 0.582031 0.122360 0.000000
vt 0.669065 0.122570 0.000000
vt 0.669065 0.122570 0.000000
vt 0.582031 0.122360 0.000000
vt 0.582031 0.003906 0.000000
vt 0.669065 0.004117 0.000000
vt 0.249710 0.763569 0.000000
vt 0.207031 0.684519 0.000000
vt 0.366691 0.634957 0.000000
vt 0.374124 0.648725 0.000000
vt 0.191113 0.775785 0.000000
vt 0.178326 0.785236 0.000000
vt 0.170751 0.761020 0.000000
vt 0.877409 0.663405 0.000000
vt 0.858584 0.669522 0.000000
vt 0.858584 0.637495 0.000000
vt 0.664544 0.632037 0.000000
vt 0.663536 0.615102 0.000000
vt 0.814244 0.605469 0.000000
vt 0.818903 0.683766 0.000000
vt 0.334424 0.108735 0.000000
vt 0.407954 0.117371 0.000000
vt 0.394136 0.235019 0.000000
vt 0.320606 0.226383 0.000000
vt 0.320606 0.226383 0.000000
vt 0.394136 0.235019 0.000000
vt 0.380317 0.352668 0.000000
vt 0.306787 0.344031 0.000000
vt 0.306787 0.344031 0.000000
vt 0.380317 0.352668 0.000000
vt 0.366499 0.470316 0.000000
vt 0.292969 0.461679 0.000000
vt 0.207031 0.684519 0.000000
vt 0.213366 0.605469 0.000000
vt 0.367795 0.621190 0.000000
vt 0.366691 0.634957 0.000000
vt 0.178326 0.785236 0.000000
vt 0.162646 0.785438 0.000000
vt 0.170751 0.761020 0.000000
vt 0.889043 0.647392 0.000000
vt 0.877409 0.663405 0.000000
vt 0.858584 0.637495 0.000000
vt 0.457387 0.003906 0.000000
vt 0.477046 0.006215 0.000000
vt 0.498842 0.128046 0.000000
vt 0.407954 0.117371 0.000000
vt 0.407954 0.117371 0.000000
vt 0.498842 0.128046 0.000000
vt 0.485024 0.245695 0.000000
vt 0.394136 0.235019 0.000000
vt 0.394136 0.235019 0.000000
vt 0.485024 0.245695 0.000000
vt 0.471206 0.363343 0.000000
vt 0.380317 0.352668 0.000000
vt 0.380317 0.352668 0.000000
vt 0.471206 0.363343 0.000000
vt 0.457387 0.480991 0.000000
vt 0.366499 0.470316 0.000000
vt 0.366499 0.470316 0.000000
vt 0.457387 0.480991 0.000000
vt 0.406039 0.594231 0.000000
vt 0.390210 0.592372 0.000000
vt 0.162646 0.785438 0.000000
vt 0.150062 0.776313 0.000000
vt 0.170751 0.761020 0.000000
vt 0.889043 0.627599 0.000000
vt 0.889043 0.647392 0.000000
vt 0.858584 0.637495 0.000000
vt 0.569429 0.615102 0.000000
vt 0.568422 0.632037 0.000000
vt 0.414063 0.683766 0.000000
vt 0.418721 0.605469 0.000000
vt 0.498842 0.128046 0.000000
vt 0.572372 0.136683 0.000000
vt 0.558554 0.254331 0.000000
vt 0.485024 0.245695 0.000000
vt 0.485024 0.245695 0.000000
vt 0.558554 0.254331 0.000000
vt 0.544736 0.371979 0.000000
vt 0.471206 0.363343 0.000000
vt 0.471206 0.363343 0.000000
vt 0.544736 0.371979 0.000000
vt 0.530917 0.489627 0.000000
vt 0.457387 0.480991 0.000000
vt 0.030790 0.833484 0.000000
vt 0.003906 0.747548 0.000000
vt 0.145380 0.761347 0.000000
vt 0.150062 0.776313 0.000000
vt 0.150062 0.776313 0.000000
vt 0.145380 0.761347 0.000000
vt 0.170751 0.761020 0.000000
vt 0.877409 0.611585 0.000000
vt 0.889043 0.627599 0.000000
vt 0.858584 0.637495 0.000000
vt 0.568422 0.632037 0.000000
vt 0.577899 0.648972 0.000000
vt 0.457880 0.762063 0.000000
vt 0.414063 0.683766 0.000000
vt 0.939693 0.359277 0.000000
vt 0.852659 0.359277 0.000000
vt 0.852659 0.240820 0.000000
vt 0.939693 0.240820 0.000000
vt 0.939693 0.240820 0.000000
vt 0.852659 0.240820 0.000000
vt 0.852659 0.122363 0.000000
vt 0.939693 0.122363 0.000000
vt 0.939693 0.122363 0.000000
vt 0.852659 0.122363 0.000000
vt 0.852659 0.003906 0.000000
vt 0.939693 0.003906 0.000000
vt 0.003906 0.747548 0.000000
vt 0.032667 0.660897 0.000000
vt 0.150389 0.746256 0.000000
vt 0.145380 0.761347 0.000000
vt 0.145380 0.761347 0.000000
vt 0.150389 0.746256 0.000000
vt 0.170751 0.761020 0.000000
vt 0.858584 0.605469 0.000000
vt 0.877409 0.611585 0.000000
vt 0.858584 0.637495 0.000000
vt 0.577899 0.648972 0.000000
vt 0.594241 0.659439 0.000000
vt 0.533436 0.810453 0.000000
vt 0.457880 0.762063 0.000000
vt 0.852659 0.359277 0.000000
vt 0.765625 0.359277 0.000000
vt 0.765625 0.240820 0.000000
vt 0.852659 0.240820 0.000000
vt 0.852659 0.240820 0.000000
vt 0.765625 0.240820 0.000000
vt 0.765625 0.122363 0.000000
vt 0.852659 0.122363 0.000000
vt 0.852659 0.122363 0.000000
vt 0.765625 0.122363 0.000000
vt 0.765625 0.003906 0.000000
vt 0.852659 0.003906 0.000000
vt 0.032667 0.660897 0.000000
vt 0.106087 0.606627 0.000000
vt 0.163175 0.736804 0.000000
vt 0.150389 0.746256 0.000000
vt 0.150389 0.746256 0.000000
vt 0.163175 0.736804 0.000000
vt 0.170751 0.761020 0.000000
vt 0.839760 0.611585 0.000000
vt 0.858584 0.605469 0.000000
vt 0.858584 0.637495 0.000000
vt 0.594241 0.659439 0.000000
vt 0.611206 0.659439 0.000000
vt 0.611872 0.810453 0.000000
vt 0.533436 0.810453 0.000000
vt 0.241965 0.489111 0.000000
vt 0.168401 0.480770 0.000000
vt 0.181747 0.363067 0.000000
vt 0.255311 0.371408 0.000000
vt 0.255311 0.371408 0.000000
vt 0.181747 0.363067 0.000000
vt 0.195092 0.245364 0.000000
vt 0.268657 0.253706 0.000000
vt 0.268657 0.253706 0.000000
vt 0.195092 0.245364 0.000000
vt 0.208438 0.127662 0.000000
vt 0.282002 0.136003 0.000000
vt 0.106087 0.606627 0.000000
vt 0.196122 0.605469 0.000000
vt 0.178855 0.736602 0.000000
vt 0.163175 0.736804 0.000000
vt 0.163175 0.736804 0.000000
vt 0.178855 0.736602 0.000000
vt 0.170751 0.761020 0.000000
vt 0.828125 0.627599 0.000000
vt 0.839760 0.611585 0.000000
vt 0.858584 0.637495 0.000000
vt 0.119424 0.594432 0.000000
vt 0.099756 0.592202 0.000000
vt 0.077470 0.470460 0.000000
vt 0.168401 0.480770 0.000000
vt 0.168401 0.480770 0.000000
vt 0.077470 0.470460 0.000000
vt 0.090816 0.352757 0.000000
vt 0.181747 0.363067 0.000000
vt 0.181747 0.363067 0.000000
vt 0.090816 0.352757 0.000000
vt 0.104162 0.235054 0.000000
vt 0.195092 0.245364 0.000000
vt 0.195092 0.245364 0.000000
vt 0.104162 0.235054 0.000000
vt 0.117508 0.117352 0.000000
vt 0.208438 0.127662 0.000000
vt 0.208438 0.127662 0.000000
vt 0.117508 0.117352 0.000000
vt 0.168401 0.003906 0.000000
vt 0.184237 0.005702 0.000000
vt 0.178855 0.736602 0.000000
vt 0.191440 0.745727 0.000000
vt 0.170751 0.761020 0.000000
vt 0.828125 0.647392 0.000000
vt 0.828125 0.627599 0.000000
vt 0.858584 0.637495 0.000000
vt 0.621759 0.659439 0.000000
vt 0.638724 0.659439 0.000000
vt 0.699529 0.810453 0.000000
vt 0.621094 0.810453 0.000000
vt 0.077470 0.470460 0.000000
vt 0.003906 0.462118 0.000000
vt 0.017252 0.344416 0.000000
vt 0.090816 0.352757 0.000000
vt 0.090816 0.352757 0.000000
vt 0.017252 0.344416 0.000000
vt 0.030598 0.226713 0.000000
vt 0.104162 0.235054 0.000000
vt 0.104162 0.235054 0.000000
vt 0.030598 0.226713 0.000000
vt 0.043944 0.109010 0.000000
vt 0.117508 0.117352 0.000000
vt 0.404402 0.812425 0.000000
vt 0.325098 0.812425 0.000000
vt 0.387254 0.657233 0.000000
vt 0.401065 0.657233 0.000000
vt 0.191440 0.745727 0.000000
vt 0.196122 0.760694 0.000000
vt 0.170751 0.761020 0.000000
vt 0.839760 0.663405 0.000000
vt 0.828125 0.647392 0.000000
vt 0.858584 0.637495 0.000000
vt 0.638724 0.659439 0.000000
vt 0.655066 0.648972 0.000000
vt 0.775086 0.762063 0.000000
vt 0.699529 0.810453 0.000000
vt 0.756099 0.359267 0.000000
vt 0.669065 0.359478 0.000000
vt 0.669065 0.241024 0.000000
vt 0.756099 0.240813 0.000000
vt 0.756099 0.240813 0.000000
vt 0.669065 0.241024 0.000000
vt 0.669065 0.122570 0.000000
vt 0.756099 0.122360 0.000000
vt 0.756099 0.122360 0.000000
vt 0.669065 0.122570 0.000000
vt 0.669065 0.004117 0.000000
vt 0.756099 0.003906 0.000000
vt 0.325098 0.812425 0.000000
vt 0.249710 0.763569 0.000000
vt 0.374124 0.648725 0.000000
vt 0.387254 0.657233 0.000000
vt 0.196122 0.760694 0.000000
vt 0.191113 0.775785 0.000000
vt 0.170751 0.761020 0.000000
#end 260 texture vertices

#begin 70 faces
usemtl material5
f 9/1/1 3/2/2 1/3/3 
usemtl material5
f 3/4/4 9/5/5 10/6/6 4/7/7 
usemtl material5
f 4/8/8 10/9/9 11/10/10 5/11/11 
usemtl material5
f 5/12/12 11/13/13 12/14/14 6/15/15 
usemtl material5
f 6/16/16 12/17/17 13/18/18 7/19/19 
usemtl material5
f 7/20/20 13/21/21 14/22/22 8/23/23 
usemtl material5
f 8/24/24 14/25/25 2/26/26 
usemtl material5
f 15/27/27 9/28/28 1/29/29 
usemtl material5
f 9/30/30 15/31/31 16/32/32 10/33/33 
usemtl material5
f 10/34/34 16/35/35 17/36/36 11/37/37 
usemtl material5
f 11/38/38 17/39/39 18/40/40 12/41/41 
usemtl material5
f 12/42/42 18/43/43 19/44/44 13/45/45 
usemtl material5
f 13/46/46 19/47/47 20/48/48 14/49/49 
usemtl material5
f 14/50/50 20/51/51 2/52/52 
usemtl material5
f 21/53/53 15/54/54 1/55/55 
usemtl material5
f 15/56/56 21/57/57 22/58/58 16/59/59 
usemtl material5
f 16/60/60 22/61/61 23/62/62 17/63/63 
usemtl material5
f 17/64/64 23/65/65 24/66/66 18/67/67 
usemtl material5
f 18/68/68 24/69/69 25/70/70 19/71/71 
usemtl material5
f 19/72/72 25/73/73 26/74/74 20/75/75 
usemtl material5
f 20/76/76 26/77/77 2/78/78 
usemtl material5
f 27/79/79 21/80/80 1/81/81 
usemtl material5
f 21/82/82 27/83/83 28/84/84 22/85/85 
usemtl material5
f 22/86/86 28/87/87 29/88/88 23/89/89 
usemtl material5
f 23/90/90 29/91/91 30/92/92 24/93/93 
usemtl material5
f 24/94/94 30/95/95 31/96/96 25/97/97 
usemtl material5
f 25/98/98 31/99/99 32/100/100 26/101/101 
usemtl material5
f 26/102/102 32/103/103 2/104/104 
usemtl material5
f 33/105/105 27/106/106 1/107/107 
usemtl material5
f 27/108/108 33/109/109 34/110/110 28/111/111 
usemtl material5
f 28/112/112 34/113/113 35/114/114 29/115/115 
usemtl material5
f 29/116/116 35/117/117 36/118/118 30/119/119 
usemtl material5
f 30/120/120 36/121/121 37/122/122 31/123/123 
usemtl material5
f 31/124/124 37/125/125 38/126/126 32/127/127 
usemtl material5
f 32/128/128 38/129/129 2/130/130 
usemtl material5
f 39/131/131 33/132/132 1/133/133 
usemtl material5
f 33/134/134 39/135/135 40/136/136 34/137/137 
usemtl material5
f 34/138/138 40/139/139 41/140/140 35/141/141 
usemtl material5
f 35/142/142 41/143/143 42/144/144 36/145/145 
usemtl material5
f 36/146/146 42/147/147 43/148/148 37/149/149 
usemtl material5
f 37/150/150 43/151/151 44/152/152 38/153/153 
usemtl material5
f 38/154/154 44/155/155 2/156/156 
usemtl material5
f 45/157/157 39/158/158 1/159/159 
usemtl material5
f 39/160/160 45/161/161 46/162/162 40/163/163 
usemtl material5
f 40/164/164 46/165/165 47/166/166 41/167/167 
usemtl material5
f 41/168/168 47/169/169 48/170/170 42/171/171 
usemtl material5
f 42/172/172 48/173/173 49/174/174 43/175/175 
usemtl material5
f 43/176/176 49/177/177 50/178/178 44/179/179 
usemtl material5
f 44/180/180 50/181/181 2/182/182 
usemtl material5
f 51/183/183 45/184/184 1/185/185 
usemtl material5
f 45/186/186 51/187/187 52/188/188 46/189/189 
usemtl material5
f 46/190/190 52/191/191 53/192/192 47/193/193 
usemtl material5
f 47/194/194 53/195/195 54/196/196 48/197/197 
usemtl material5
f 48/198/198 54/199/199 55/200/200 49/201/201 
usemtl material5
f 49/202/202 55/203/203 56/204/204 50/205/205 
usemtl material5
f 50/206/206 56/207/207 2/208/208 
usemtl material5
f 57/209/209 51/210/210 1/211/211 
usemtl material5
f 51/212/212 57/213/213 58/214/214 52/215/215 
usemtl material5
f 52/216/216 58/217/217 59/218/218 53/219/219 
usemtl material5
f 53/220/220 59/221/221 60/222/222 54/223/223 
usemtl material5
f 54/224/224 60/225/225 61/226/226 55/227/227 
usemtl material5
f 55/228/228 61/229/229 62/230/230 56/231/231 
usemtl material5
f 56/232/232 62/233/233 2/234/234 
usemtl material5
f 3/235/235 57/236/236 1/237/237 
usemtl material5
f 57/238/238 3/239/239 4/240/240 58/241/241 
usemtl material5
f 58/242/242 4/243/243 5/244/244 59/245/245 
usemtl material5
f 59/246/246 5/247/247 6/248/248 60/249/249 
usemtl material5
f 60/250/250 6/251/251 7/252/252 61/253/253 
usemtl material5
f 61/254/254 7/255/255 8/256/256 62/257/257 
usemtl material5
f 62/258/258 8/259/259 2/260/260 
#end 70 faces
